{
  "required": true,
  "package": "infra.mixin",
  "refmap": "net.cydhra.refmap.json",
  "compatibilityLevel": "JAVA_8",
  "client": [
    "hooks.InitializationHook",
    "hooks.KeyBindingMixin",
    "hooks.MinecraftTickHook",
    "hooks.RenderOverlayHook",
    "hooks.RenderWorldHook"
  ]
}